module zap-logger-poc

go 1.18

require go.uber.org/zap v1.21.0

require (
	go.uber.org/atomic v1.7.0 // indirect
	go.uber.org/multierr v1.6.0 // indirect
	gopkg.in/natefinch/lumberjack.v2 v2.0.0 // indirect
)
